^C:\USERS\BJ\PROGRAMMING\CS538\PLUCKNDROP\SDL2_PLUCKNDROP\SDL2_PLUCKNDROP\MAIN.CPP
C:\PROGRAM FILES (X86)\MICROSOFT VISUAL STUDIO\2017\COMMUNITY\VC\TOOLS\MSVC\14.14.26428\BIN\HOSTX86\X86\1033\CLUI.DLL
C:\WINDOWS\GLOBALIZATION\SORTING\SORTDEFAULT.NLS
C:\WINDOWS\SYSTEM32\RSAENH.DLL
C:\WINDOWS\SYSTEM32\TZRES.DLL
C:\PROGRAM FILES (X86)\WINDOWS KITS\10\INCLUDE\10.0.17134.0\UCRT\STDIO.H
C:\PROGRAM FILES (X86)\WINDOWS KITS\10\INCLUDE\10.0.17134.0\UCRT\CORECRT.H
C:\PROGRAM FILES (X86)\MICROSOFT VISUAL STUDIO\2017\COMMUNITY\VC\TOOLS\MSVC\14.14.26428\INCLUDE\VCRUNTIME.H
C:\PROGRAM FILES (X86)\MICROSOFT VISUAL STUDIO\2017\COMMUNITY\VC\TOOLS\MSVC\14.14.26428\INCLUDE\SAL.H
C:\PROGRAM FILES (X86)\MICROSOFT VISUAL STUDIO\2017\COMMUNITY\VC\TOOLS\MSVC\14.14.26428\INCLUDE\CONCURRENCYSAL.H
C:\PROGRAM FILES (X86)\MICROSOFT VISUAL STUDIO\2017\COMMUNITY\VC\TOOLS\MSVC\14.14.26428\INCLUDE\VADEFS.H
C:\PROGRAM FILES (X86)\WINDOWS KITS\10\INCLUDE\10.0.17134.0\UCRT\CORECRT_WSTDIO.H
C:\PROGRAM FILES (X86)\WINDOWS KITS\10\INCLUDE\10.0.17134.0\UCRT\CORECRT_STDIO_CONFIG.H
C:\PROGRAM FILES (X86)\WINDOWS KITS\10\INCLUDE\10.0.17134.0\UCRT\STDLIB.H
C:\PROGRAM FILES (X86)\WINDOWS KITS\10\INCLUDE\10.0.17134.0\UCRT\CORECRT_MALLOC.H
C:\PROGRAM FILES (X86)\WINDOWS KITS\10\INCLUDE\10.0.17134.0\UCRT\CORECRT_SEARCH.H
C:\PROGRAM FILES (X86)\WINDOWS KITS\10\INCLUDE\10.0.17134.0\UCRT\STDDEF.H
C:\PROGRAM FILES (X86)\WINDOWS KITS\10\INCLUDE\10.0.17134.0\UCRT\CORECRT_WSTDLIB.H
C:\PROGRAM FILES (X86)\MICROSOFT VISUAL STUDIO\2017\COMMUNITY\VC\TOOLS\MSVC\14.14.26428\INCLUDE\LIMITS.H
C:\PROGRAM FILES (X86)\MICROSOFT VISUAL STUDIO\2017\COMMUNITY\VC\TOOLS\MSVC\14.14.26428\INCLUDE\STDBOOL.H
C:\PROGRAM FILES (X86)\WINDOWS KITS\10\INCLUDE\10.0.17134.0\UCRT\STRING.H
C:\PROGRAM FILES (X86)\WINDOWS KITS\10\INCLUDE\10.0.17134.0\UCRT\CORECRT_MEMORY.H
C:\PROGRAM FILES (X86)\WINDOWS KITS\10\INCLUDE\10.0.17134.0\UCRT\CORECRT_MEMCPY_S.H
C:\PROGRAM FILES (X86)\WINDOWS KITS\10\INCLUDE\10.0.17134.0\UCRT\ERRNO.H
C:\PROGRAM FILES (X86)\MICROSOFT VISUAL STUDIO\2017\COMMUNITY\VC\TOOLS\MSVC\14.14.26428\INCLUDE\VCRUNTIME_STRING.H
C:\PROGRAM FILES (X86)\WINDOWS KITS\10\INCLUDE\10.0.17134.0\UCRT\CORECRT_WSTRING.H
C:\COMPILERS\VISUALSTUDIOLIBS\SDL2-2.0.8\INCLUDE\SDL2\SDL.H
C:\COMPILERS\VISUALSTUDIOLIBS\SDL2-2.0.8\INCLUDE\SDL2\SDL_MAIN.H
C:\COMPILERS\VISUALSTUDIOLIBS\SDL2-2.0.8\INCLUDE\SDL2\SDL_STDINC.H
C:\COMPILERS\VISUALSTUDIOLIBS\SDL2-2.0.8\INCLUDE\SDL2\SDL_CONFIG.H
C:\COMPILERS\VISUALSTUDIOLIBS\SDL2-2.0.8\INCLUDE\SDL2\SDL_PLATFORM.H
C:\PROGRAM FILES (X86)\WINDOWS KITS\10\INCLUDE\10.0.17134.0\SHARED\WINAPIFAMILY.H
C:\PROGRAM FILES (X86)\WINDOWS KITS\10\INCLUDE\10.0.17134.0\SHARED\WINPACKAGEFAMILY.H
C:\COMPILERS\VISUALSTUDIOLIBS\SDL2-2.0.8\INCLUDE\SDL2\BEGIN_CODE.H
C:\COMPILERS\VISUALSTUDIOLIBS\SDL2-2.0.8\INCLUDE\SDL2\CLOSE_CODE.H
C:\PROGRAM FILES (X86)\MICROSOFT VISUAL STUDIO\2017\COMMUNITY\VC\TOOLS\MSVC\14.14.26428\INCLUDE\STDARG.H
C:\COMPILERS\VISUALSTUDIOLIBS\SDL2-2.0.8\INCLUDE\SDL2\SDL_ASSERT.H
C:\COMPILERS\VISUALSTUDIOLIBS\SDL2-2.0.8\INCLUDE\SDL2\SDL_ATOMIC.H
C:\COMPILERS\VISUALSTUDIOLIBS\SDL2-2.0.8\INCLUDE\SDL2\SDL_AUDIO.H
C:\COMPILERS\VISUALSTUDIOLIBS\SDL2-2.0.8\INCLUDE\SDL2\SDL_ERROR.H
C:\COMPILERS\VISUALSTUDIOLIBS\SDL2-2.0.8\INCLUDE\SDL2\SDL_ENDIAN.H
C:\COMPILERS\VISUALSTUDIOLIBS\SDL2-2.0.8\INCLUDE\SDL2\SDL_MUTEX.H
C:\COMPILERS\VISUALSTUDIOLIBS\SDL2-2.0.8\INCLUDE\SDL2\SDL_THREAD.H
C:\PROGRAM FILES (X86)\WINDOWS KITS\10\INCLUDE\10.0.17134.0\UCRT\PROCESS.H
C:\PROGRAM FILES (X86)\WINDOWS KITS\10\INCLUDE\10.0.17134.0\UCRT\CORECRT_STARTUP.H
C:\PROGRAM FILES (X86)\WINDOWS KITS\10\INCLUDE\10.0.17134.0\UCRT\MATH.H
C:\PROGRAM FILES (X86)\WINDOWS KITS\10\INCLUDE\10.0.17134.0\UCRT\CORECRT_MATH.H
C:\PROGRAM FILES (X86)\MICROSOFT VISUAL STUDIO\2017\COMMUNITY\VC\TOOLS\MSVC\14.14.26428\INCLUDE\VCRUNTIME_STARTUP.H
C:\PROGRAM FILES (X86)\WINDOWS KITS\10\INCLUDE\10.0.17134.0\UCRT\CORECRT_WPROCESS.H
C:\COMPILERS\VISUALSTUDIOLIBS\SDL2-2.0.8\INCLUDE\SDL2\SDL_RWOPS.H
C:\COMPILERS\VISUALSTUDIOLIBS\SDL2-2.0.8\INCLUDE\SDL2\SDL_CLIPBOARD.H
C:\COMPILERS\VISUALSTUDIOLIBS\SDL2-2.0.8\INCLUDE\SDL2\SDL_CPUINFO.H
C:\PROGRAM FILES (X86)\MICROSOFT VISUAL STUDIO\2017\COMMUNITY\VC\TOOLS\MSVC\14.14.26428\INCLUDE\INTRIN.H
C:\PROGRAM FILES (X86)\MICROSOFT VISUAL STUDIO\2017\COMMUNITY\VC\TOOLS\MSVC\14.14.26428\INCLUDE\INTRIN0.H
C:\PROGRAM FILES (X86)\MICROSOFT VISUAL STUDIO\2017\COMMUNITY\VC\TOOLS\MSVC\14.14.26428\INCLUDE\SETJMP.H
C:\PROGRAM FILES (X86)\MICROSOFT VISUAL STUDIO\2017\COMMUNITY\VC\TOOLS\MSVC\14.14.26428\INCLUDE\IMMINTRIN.H
C:\PROGRAM FILES (X86)\MICROSOFT VISUAL STUDIO\2017\COMMUNITY\VC\TOOLS\MSVC\14.14.26428\INCLUDE\WMMINTRIN.H
C:\PROGRAM FILES (X86)\MICROSOFT VISUAL STUDIO\2017\COMMUNITY\VC\TOOLS\MSVC\14.14.26428\INCLUDE\NMMINTRIN.H
C:\PROGRAM FILES (X86)\MICROSOFT VISUAL STUDIO\2017\COMMUNITY\VC\TOOLS\MSVC\14.14.26428\INCLUDE\SMMINTRIN.H
C:\PROGRAM FILES (X86)\MICROSOFT VISUAL STUDIO\2017\COMMUNITY\VC\TOOLS\MSVC\14.14.26428\INCLUDE\TMMINTRIN.H
C:\PROGRAM FILES (X86)\MICROSOFT VISUAL STUDIO\2017\COMMUNITY\VC\TOOLS\MSVC\14.14.26428\INCLUDE\PMMINTRIN.H
C:\PROGRAM FILES (X86)\MICROSOFT VISUAL STUDIO\2017\COMMUNITY\VC\TOOLS\MSVC\14.14.26428\INCLUDE\EMMINTRIN.H
C:\PROGRAM FILES (X86)\MICROSOFT VISUAL STUDIO\2017\COMMUNITY\VC\TOOLS\MSVC\14.14.26428\INCLUDE\XMMINTRIN.H
C:\PROGRAM FILES (X86)\MICROSOFT VISUAL STUDIO\2017\COMMUNITY\VC\TOOLS\MSVC\14.14.26428\INCLUDE\MMINTRIN.H
C:\PROGRAM FILES (X86)\WINDOWS KITS\10\INCLUDE\10.0.17134.0\UCRT\MALLOC.H
C:\PROGRAM FILES (X86)\MICROSOFT VISUAL STUDIO\2017\COMMUNITY\VC\TOOLS\MSVC\14.14.26428\INCLUDE\ZMMINTRIN.H
C:\PROGRAM FILES (X86)\MICROSOFT VISUAL STUDIO\2017\COMMUNITY\VC\TOOLS\MSVC\14.14.26428\INCLUDE\AMMINTRIN.H
C:\PROGRAM FILES (X86)\MICROSOFT VISUAL STUDIO\2017\COMMUNITY\VC\TOOLS\MSVC\14.14.26428\INCLUDE\MM3DNOW.H
C:\COMPILERS\VISUALSTUDIOLIBS\SDL2-2.0.8\INCLUDE\SDL2\SDL_EVENTS.H
C:\COMPILERS\VISUALSTUDIOLIBS\SDL2-2.0.8\INCLUDE\SDL2\SDL_VIDEO.H
C:\COMPILERS\VISUALSTUDIOLIBS\SDL2-2.0.8\INCLUDE\SDL2\SDL_PIXELS.H
C:\COMPILERS\VISUALSTUDIOLIBS\SDL2-2.0.8\INCLUDE\SDL2\SDL_RECT.H
C:\COMPILERS\VISUALSTUDIOLIBS\SDL2-2.0.8\INCLUDE\SDL2\SDL_SURFACE.H
C:\COMPILERS\VISUALSTUDIOLIBS\SDL2-2.0.8\INCLUDE\SDL2\SDL_BLENDMODE.H
C:\COMPILERS\VISUALSTUDIOLIBS\SDL2-2.0.8\INCLUDE\SDL2\SDL_KEYBOARD.H
C:\COMPILERS\VISUALSTUDIOLIBS\SDL2-2.0.8\INCLUDE\SDL2\SDL_KEYCODE.H
C:\COMPILERS\VISUALSTUDIOLIBS\SDL2-2.0.8\INCLUDE\SDL2\SDL_SCANCODE.H
C:\COMPILERS\VISUALSTUDIOLIBS\SDL2-2.0.8\INCLUDE\SDL2\SDL_MOUSE.H
C:\COMPILERS\VISUALSTUDIOLIBS\SDL2-2.0.8\INCLUDE\SDL2\SDL_JOYSTICK.H
C:\COMPILERS\VISUALSTUDIOLIBS\SDL2-2.0.8\INCLUDE\SDL2\SDL_GAMECONTROLLER.H
C:\COMPILERS\VISUALSTUDIOLIBS\SDL2-2.0.8\INCLUDE\SDL2\SDL_QUIT.H
C:\COMPILERS\VISUALSTUDIOLIBS\SDL2-2.0.8\INCLUDE\SDL2\SDL_GESTURE.H
C:\COMPILERS\VISUALSTUDIOLIBS\SDL2-2.0.8\INCLUDE\SDL2\SDL_TOUCH.H
C:\COMPILERS\VISUALSTUDIOLIBS\SDL2-2.0.8\INCLUDE\SDL2\SDL_FILESYSTEM.H
C:\COMPILERS\VISUALSTUDIOLIBS\SDL2-2.0.8\INCLUDE\SDL2\SDL_HAPTIC.H
C:\COMPILERS\VISUALSTUDIOLIBS\SDL2-2.0.8\INCLUDE\SDL2\SDL_HINTS.H
C:\COMPILERS\VISUALSTUDIOLIBS\SDL2-2.0.8\INCLUDE\SDL2\SDL_LOADSO.H
C:\COMPILERS\VISUALSTUDIOLIBS\SDL2-2.0.8\INCLUDE\SDL2\SDL_LOG.H
C:\COMPILERS\VISUALSTUDIOLIBS\SDL2-2.0.8\INCLUDE\SDL2\SDL_MESSAGEBOX.H
C:\COMPILERS\VISUALSTUDIOLIBS\SDL2-2.0.8\INCLUDE\SDL2\SDL_POWER.H
C:\COMPILERS\VISUALSTUDIOLIBS\SDL2-2.0.8\INCLUDE\SDL2\SDL_RENDER.H
C:\COMPILERS\VISUALSTUDIOLIBS\SDL2-2.0.8\INCLUDE\SDL2\SDL_SHAPE.H
C:\COMPILERS\VISUALSTUDIOLIBS\SDL2-2.0.8\INCLUDE\SDL2\SDL_SYSTEM.H
C:\COMPILERS\VISUALSTUDIOLIBS\SDL2-2.0.8\INCLUDE\SDL2\SDL_TIMER.H
C:\COMPILERS\VISUALSTUDIOLIBS\SDL2-2.0.8\INCLUDE\SDL2\SDL_VERSION.H
